

================================================================
== Vivado HLS Report for 'kernel_layer_entry29'
================================================================
* Date:           Sun May 21 23:35:34 2017

* Version:        2016.4 (Build 1722992 on Wed Mar 08 18:30:27 MST 2017)
* Project:        hls
* Solution:       solution1
* Product family: zynq
* Target device:  xc7z020clg484-1


================================================================
== Performance Estimates
================================================================
+ Timing (ns): 
    * Summary: 
    +--------+-------+----------+------------+
    |  Clock | Target| Estimated| Uncertainty|
    +--------+-------+----------+------------+
    |ap_clk  |   5.00|      2.00|        0.62|
    +--------+-------+----------+------------+

+ Latency (clock cycles): 
    * Summary: 
    +-----+-----+-----+-----+---------+
    |  Latency  |  Interval | Pipeline|
    | min | max | min | max |   Type  |
    +-----+-----+-----+-----+---------+
    |    0|    0|    0|    0|   none  |
    +-----+-----+-----+-----+---------+

    + Detail: 
        * Instance: 
        N/A

        * Loop: 
        N/A



================================================================
== Utilization Estimates
================================================================
* Summary: 
+-----------------+---------+-------+--------+-------+
|       Name      | BRAM_18K| DSP48E|   FF   |  LUT  |
+-----------------+---------+-------+--------+-------+
|DSP              |        -|      -|       -|      -|
|Expression       |        -|      -|       0|      1|
|FIFO             |        -|      -|       -|      -|
|Instance         |        -|      -|       -|      -|
|Memory           |        -|      -|       -|      -|
|Multiplexer      |        -|      -|       -|      2|
|Register         |        -|      -|       2|      -|
+-----------------+---------+-------+--------+-------+
|Total            |        0|      0|       2|      3|
+-----------------+---------+-------+--------+-------+
|Available        |      280|    220|  106400|  53200|
+-----------------+---------+-------+--------+-------+
|Utilization (%)  |        0|      0|   ~0   |   ~0  |
+-----------------+---------+-------+--------+-------+

+ Detail: 
    * Instance: 
    N/A

    * DSP48: 
    N/A

    * Memory: 
    N/A

    * FIFO: 
    N/A

    * Expression: 
    +-----------------+----------+-------+---+----+------------+------------+
    |  Variable Name  | Operation| DSP48E| FF| LUT| Bitwidth P0| Bitwidth P1|
    +-----------------+----------+-------+---+----+------------+------------+
    |ap_block_state1  |    or    |      0|  0|   1|           1|           1|
    +-----------------+----------+-------+---+----+------------+------------+
    |Total            |          |      0|  0|   1|           1|           1|
    +-----------------+----------+-------+---+----+------------+------------+

    * Multiplexer: 
    +----------------------+----+-----------+-----+-----------+
    |         Name         | LUT| Input Size| Bits| Total Bits|
    +----------------------+----+-----------+-----+-----------+
    |param_size_blk_n      |   1|          2|    1|          2|
    |param_size_out_blk_n  |   1|          2|    1|          2|
    +----------------------+----+-----------+-----+-----------+
    |Total                 |   2|          4|    2|          4|
    +----------------------+----+-----------+-----+-----------+

    * Register: 
    +-------------+---+----+-----+-----------+
    |     Name    | FF| LUT| Bits| Const Bits|
    +-------------+---+----+-----+-----------+
    |ap_CS_fsm    |  1|   0|    1|          0|
    |ap_done_reg  |  1|   0|    1|          0|
    +-------------+---+----+-----+-----------+
    |Total        |  2|   0|    2|          0|
    +-------------+---+----+-----+-----------+



================================================================
== Interface
================================================================
* Summary: 
+-----------------------+-----+-----+------------+----------------------+--------------+
|       RTL Ports       | Dir | Bits|  Protocol  |     Source Object    |    C Type    |
+-----------------------+-----+-----+------------+----------------------+--------------+
|ap_clk                 |  in |    1| ap_ctrl_hs | kernel_layer.entry29 | return value |
|ap_rst                 |  in |    1| ap_ctrl_hs | kernel_layer.entry29 | return value |
|ap_start               |  in |    1| ap_ctrl_hs | kernel_layer.entry29 | return value |
|ap_done                | out |    1| ap_ctrl_hs | kernel_layer.entry29 | return value |
|ap_continue            |  in |    1| ap_ctrl_hs | kernel_layer.entry29 | return value |
|ap_idle                | out |    1| ap_ctrl_hs | kernel_layer.entry29 | return value |
|ap_ready               | out |    1| ap_ctrl_hs | kernel_layer.entry29 | return value |
|param_size_dout        |  in |   32|   ap_fifo  |      param_size      |    pointer   |
|param_size_empty_n     |  in |    1|   ap_fifo  |      param_size      |    pointer   |
|param_size_read        | out |    1|   ap_fifo  |      param_size      |    pointer   |
|param_size_out_din     | out |   32|   ap_fifo  |    param_size_out    |    pointer   |
|param_size_out_full_n  |  in |    1|   ap_fifo  |    param_size_out    |    pointer   |
|param_size_out_write   | out |    1|   ap_fifo  |    param_size_out    |    pointer   |
+-----------------------+-----+-----+------------+----------------------+--------------+

